<svg width="127" height="104" viewBox="0 0 127 104" fill="none" xmlns="http://www.w3.org/2000/svg">
<circle cx="75" cy="52" r="52" fill="url(#paint0_linear)"/>
<path d="M84.2001 65.4185C84.2001 54.4185 79.6001 44.0185 71.5001 36.6185C88.5001 16.0184 86.0001 7.31845 84.8001 5.11845C84.7001 4.81845 84.5001 4.51845 84.2001 4.31845C83.9001 4.11845 83.6001 4.01845 83.2001 4.01845C80.6001 3.81845 71.5001 4.81845 59.0001 29.0184C53.2001 26.8184 47.1001 26.1185 40.8001 26.7185C22.8001 28.7185 8.40006 43.2185 6.50006 61.1185C5.20006 73.3185 9.50006 85.1184 18.3001 93.5184C22.3001 97.3185 27.4001 99.6184 32.5001 99.9184C32.9001 99.9184 33.2001 99.9184 33.6001 99.9184C40.7001 99.9184 45.0001 95.8185 45.8001 88.3185C46.8001 79.1185 53.5001 76.9184 59.0001 76.6184C61.1001 76.5184 63.5001 76.9184 65.9001 77.8185C69.4001 79.1185 76.1001 80.4184 81.8001 74.6184C84.2001 72.4184 84.2001 67.7185 84.2001 65.4185ZM82.2001 7.21845C82.9001 9.71845 83.6001 20.0185 60.3001 44.3185L56.5001 41.8185C57.3001 40.0185 58.0001 38.3185 58.8001 36.7185L64.1001 36.6185C65.0001 36.6185 65.7001 35.9184 65.6001 35.0184C65.5001 34.1185 64.9001 33.5184 64.0001 33.5184L60.3001 33.6185C60.5001 33.2185 60.7001 32.8184 60.9001 32.4184L67.0001 32.2185C67.9001 32.2185 68.6001 31.5184 68.5001 30.6185C68.4001 29.7185 67.8001 29.1185 66.9001 29.1185L62.5001 29.0184C72.7001 9.81845 80.0001 7.41845 82.2001 7.21845ZM44.1001 59.6185C43.4001 58.7184 42.5001 58.0185 41.4001 57.6185L44.1001 53.6185C44.9001 52.9184 46.0001 52.8185 46.9001 53.4185C48.0001 54.1185 48.3001 55.5185 47.6001 56.6185C46.8001 57.8185 46.5001 59.3185 46.8001 60.7185C47.1001 62.1185 47.9001 63.4185 49.2001 64.2185C49.9001 64.6185 50.6001 64.9184 51.4001 65.1185C49.9001 66.8185 47.9001 68.0184 45.7001 68.5184C44.9001 68.7184 44.0001 68.7184 43.2001 68.7184C44.2001 67.9184 44.9001 66.8185 45.3001 65.6185C45.8001 63.6185 45.4001 61.3185 44.1001 59.6185ZM53.7001 50.4185C56.5001 52.3185 57.3001 56.2184 55.3001 59.1185L54.1001 61.0185C53.8001 61.5185 53.2001 61.9185 52.6001 62.0185C52.0001 62.1185 51.4001 62.0185 50.8001 61.6185C50.3001 61.2184 49.9001 60.7184 49.8001 60.1185C49.7001 59.5185 49.8001 58.9185 50.1001 58.4185C51.8001 55.9185 51.1001 52.5185 48.6001 50.8185C48.2001 50.5185 47.7001 50.3185 47.2001 50.1185C49.2001 49.1185 51.7001 49.1185 53.7001 50.4185ZM56.9001 48.8185L53.7001 46.6185L55.1001 44.5185L58.3001 46.7185L56.9001 48.8185ZM79.6001 72.5184C75.3001 76.8185 70.4001 76.2185 67.0001 74.9184C64.1001 73.9184 61.4001 73.4184 58.8001 73.5184C46.2001 74.2184 43.3001 82.9184 42.8001 88.0184C42.1001 94.3185 38.8001 97.2185 32.8001 96.8185C28.4001 96.5184 24.1001 94.6184 20.6001 91.2184C12.5001 83.5184 8.60006 72.6185 9.80006 61.4185C11.5001 44.9185 24.8001 31.6184 41.3001 29.8184C47.0001 29.2184 52.5001 29.8185 57.7001 31.7185C57.3001 32.5184 56.9001 33.3185 56.5001 34.1185C56.4001 34.2185 56.3001 34.4184 56.3001 34.5184C55.3001 36.7184 54.2001 39.0185 53.1001 41.6185C53.0001 41.7184 53.0001 41.9185 53.0001 42.0185L50.3001 46.1185C47.3001 46.1185 44.3001 47.6185 42.5001 50.4185L41.7001 51.6185L37.5001 57.9185C37.2001 58.4185 37.1001 59.0185 37.4001 59.6185C37.7001 60.1185 38.3001 60.4185 38.9001 60.4185C39.5001 60.4185 40.7001 60.5185 41.7001 61.6185C42.4001 62.4184 42.6001 63.6185 42.2001 64.6185C41.9001 65.6185 41.2001 66.3185 40.3001 66.7185C39.5001 67.1185 38.5001 67.1185 37.7001 66.7185C37.2001 66.5185 36.6001 66.6185 36.1001 66.9185C35.6001 67.3185 35.4001 67.8185 35.5001 68.4184V68.5184C35.6001 68.9184 35.8001 69.3184 36.2001 69.6184C38.4001 71.0184 40.9001 71.8185 43.4001 71.8185C44.3001 71.8185 45.2001 71.7184 46.2001 71.5184C49.7001 70.8185 52.7001 68.7185 54.7001 65.7185L56.4001 63.2185L56.6001 62.9185C56.6001 62.9185 56.6001 62.8185 56.7001 62.8185C56.7001 62.7185 56.8001 62.7184 56.8001 62.6185L58.1001 60.7185C60.0001 57.9185 60.2001 54.4184 58.9001 51.6185L61.8001 47.2185C64.7001 44.2185 67.2001 41.5185 69.5001 38.9185C76.8001 45.8185 81.0001 55.4185 81.0001 65.4185C81.0001 67.0185 81.0001 71.1184 79.6001 72.5184Z" fill="#130246"/>
<path d="M30.3002 37.5184C26.4002 37.5184 23.2002 40.7184 23.2002 44.6184C23.2002 48.5184 26.4002 51.7184 30.3002 51.7184C34.2002 51.7184 37.4002 48.5184 37.4002 44.6184C37.4002 40.7184 34.2002 37.5184 30.3002 37.5184ZM30.3002 48.6184C28.1002 48.6184 26.3002 46.8184 26.3002 44.6184C26.3002 42.4184 28.1002 40.6184 30.3002 40.6184C32.5002 40.6184 34.3002 42.4184 34.3002 44.6184C34.3002 46.8184 32.5002 48.6184 30.3002 48.6184Z" fill="#130246"/>
<path d="M29.2 62.1184C29.2 58.2184 26 55.0184 22.1 55.0184C18.2 55.0184 15 58.2184 15 62.1184C15 66.0184 18.2 69.2184 22.1 69.2184C26 69.2184 29.2 66.1184 29.2 62.1184ZM18 62.1184C18 59.9184 19.8 58.1184 22 58.1184C24.2 58.1184 26 59.9184 26 62.1184C26 64.3184 24.2 66.1184 22 66.1184C19.8 66.1184 18 64.3184 18 62.1184Z" fill="#130246"/>
<path d="M28.1 73.4185C24.2 73.4185 21 76.6185 21 80.5185C21 84.4185 24.2 87.6185 28.1 87.6185C32 87.6185 35.2 84.4185 35.2 80.5185C35.2 76.6185 32 73.4185 28.1 73.4185ZM28.1 84.6185C25.9 84.6185 24.1 82.8185 24.1 80.6185C24.1 78.4185 25.9 76.6185 28.1 76.6185C30.3 76.6185 32.1 78.4185 32.1 80.6185C32.1 82.8185 30.3 84.6185 28.1 84.6185Z" fill="#130246"/>
<path d="M63.6001 63.6184C63.6001 67.5184 66.8001 70.7184 70.7001 70.7184C74.6001 70.7184 77.8001 67.5184 77.8001 63.6184C77.8001 59.7184 74.6001 56.5184 70.7001 56.5184C66.8001 56.5184 63.6001 59.6184 63.6001 63.6184ZM74.7001 63.6184C74.7001 65.8184 72.9001 67.6184 70.7001 67.6184C68.5001 67.6184 66.7001 65.8184 66.7001 63.6184C66.7001 61.4184 68.5001 59.6184 70.7001 59.6184C72.9001 59.6184 74.7001 61.4184 74.7001 63.6184Z" fill="#130246"/>
<path d="M9.4999 12.1185C10.3999 12.1185 11.0999 11.4185 11.0999 10.5185V6.01846C11.0999 5.11846 10.3999 4.41846 9.4999 4.41846C8.5999 4.41846 7.8999 5.11846 7.8999 6.01846V10.6185C7.8999 11.4185 8.5999 12.1185 9.4999 12.1185Z" fill="#130246"/>
<path d="M9.4999 15.1184C8.5999 15.1184 7.8999 15.8184 7.8999 16.7184V21.3184C7.8999 22.2184 8.5999 22.9184 9.4999 22.9184C10.3999 22.9184 11.0999 22.2184 11.0999 21.3184V16.7184C10.9999 15.8184 10.2999 15.1184 9.4999 15.1184Z" fill="#130246"/>
<path d="M7.9 13.9184C7.9 13.0184 7.2 12.3184 6.3 12.3184H1.6C0.7 12.3184 0 13.0184 0 13.9184C0 14.8184 0.7 15.5184 1.6 15.5184H6.3C7.2 15.4184 7.9 14.7184 7.9 13.9184Z" fill="#130246"/>
<path d="M12.6 15.4184H17.3C18.2 15.4184 18.9 14.7184 18.9 13.8184C18.9 12.9184 18.2 12.2184 17.3 12.2184H12.6C11.7 12.3184 11 13.0184 11 13.9184C11 14.8184 11.7 15.4184 12.6 15.4184Z" fill="#130246"/>
<path d="M84.3999 84.8184C81.3999 84.8184 78.8999 87.2184 78.8999 90.2184C78.8999 93.2184 81.3999 95.6184 84.3999 95.6184C87.3999 95.6184 89.8999 93.2184 89.8999 90.2184C89.8999 87.2184 87.3999 84.8184 84.3999 84.8184ZM84.3999 92.4184C83.0999 92.4184 81.9999 91.4184 81.9999 90.2184C81.9999 89.0184 83.0999 88.0184 84.3999 88.0184C85.6999 88.0184 86.7999 89.0184 86.7999 90.2184C86.6999 91.4184 85.6999 92.4184 84.3999 92.4184Z" fill="#130246"/>
<path d="M49.7002 19.9184C52.7002 19.9184 55.2002 17.5184 55.2002 14.5184C55.2002 11.5184 52.7002 9.11841 49.7002 9.11841C46.7002 9.11841 44.2002 11.5184 44.2002 14.5184C44.2002 17.5184 46.6002 19.9184 49.7002 19.9184ZM49.7002 12.3184C51.0002 12.3184 52.1002 13.3184 52.1002 14.5184C52.1002 15.7184 51.0002 16.7184 49.7002 16.7184C48.4002 16.7184 47.3002 15.7184 47.3002 14.5184C47.3002 13.3184 48.4002 12.3184 49.7002 12.3184Z" fill="#130246"/>
<path d="M58.3002 87.9185C57.4002 87.9185 56.7002 88.6185 56.7002 89.4185C56.7002 90.2185 57.4002 90.9185 58.3002 90.9185C59.2002 90.9185 59.9002 90.2185 59.9002 89.4185C59.9002 88.6185 59.2002 87.9185 58.3002 87.9185Z" fill="#130246"/>
<path d="M88.3002 51.5184C89.2002 51.5184 89.9002 50.8184 89.9002 50.0184C89.9002 49.2184 89.2002 48.5184 88.3002 48.5184C87.4002 48.5184 86.7002 49.2184 86.7002 50.0184C86.7002 50.8184 87.4002 51.5184 88.3002 51.5184Z" fill="#130246"/>
<path d="M1.6 34.3184C0.7 34.3184 0 35.0184 0 35.8184C0 36.6184 0.7 37.3184 1.6 37.3184C2.5 37.3184 3.2 36.6184 3.2 35.8184C3.2 34.9184 2.4 34.3184 1.6 34.3184Z" fill="#130246"/>
<path d="M29.9999 10.5184C30.8999 10.5184 31.5999 9.81843 31.5999 9.01843C31.5999 8.21843 30.7999 7.51843 29.9999 7.51843C29.0999 7.51843 28.3999 8.21843 28.3999 9.01843C28.3999 9.81843 29.0999 10.5184 29.9999 10.5184Z" fill="#130246"/>
<defs>
<linearGradient id="paint0_linear" x1="127" y1="-8.76902e-06" x2="8.32686" y2="20.9727" gradientUnits="userSpaceOnUse">
<stop stop-color="#EEF1FF"/>
<stop offset="1" stop-color="#FDF2FF"/>
</linearGradient>
</defs>
</svg>
