<svg width="138" height="104" viewBox="0 0 138 104" fill="none" xmlns="http://www.w3.org/2000/svg">
<circle cx="86" cy="52" r="52" fill="url(#paint0_linear)"/>
<path d="M6.2 76.8C9.6 76.8 12.4 74 12.4 70.6C12.4 70.4 12.4 70.3 12.4 70.1L25.9 64.7C27 66.4 28.9 67.5 31.1 67.5C34.5 67.5 37.3 64.7 37.3 61.3C37.3 60.8 37.2 60.3 37.1 59.8L57.4 47C58.5 48.2 60.1 48.9 61.9 48.9C64.8 48.9 67.2 46.9 67.9 44.3H83.8C84.5 47 86.9 48.9 89.8 48.9C93.2 48.9 96 46.1 96 42.7C96 39.3 93.2 36.5 89.8 36.5C86.9 36.5 84.5 38.5 83.8 41.1H80.5V5.5C80.5 4.7 79.8 4 79 4H48C47.1 4 46.5 4.7 46.5 5.5V19.4H17C16.1 19.4 15.5 20.1 15.5 20.9V65.4L11.4 67.1C10.3 65.4 8.4 64.3 6.2 64.3C2.8 64.3 0 67.1 0 70.5C0 74 2.8 76.8 6.2 76.8ZM89.8 39.6C91.5 39.6 92.9 41 92.9 42.7C92.9 44.4 91.5 45.8 89.8 45.8C88.1 45.8 86.7 44.4 86.7 42.7C86.7 41 88.1 39.6 89.8 39.6ZM31 64.4C29.3 64.4 27.9 63 27.9 61.3C27.9 59.6 29.3 58.2 31 58.2C32.7 58.2 34.1 59.6 34.1 61.3C34.1 63 32.7 64.4 31 64.4ZM61.9 45.8C60.2 45.8 58.8 44.4 58.8 42.7C58.8 41 60.2 39.6 61.9 39.6C63.6 39.6 65 41 65 42.7C65 44.4 63.6 45.8 61.9 45.8ZM49.5 7.1H77.4V41.2H67.9C67.2 38.5 64.8 36.6 61.9 36.6C58.5 36.6 55.7 39.4 55.7 42.8C55.7 43.3 55.8 43.8 55.9 44.3L49.5 48.3V7.1ZM18.6 22.6H46.5V50.2L35.5 57.1C34.4 55.9 32.8 55.1 31 55.1C27.6 55.1 24.8 57.9 24.8 61.3C24.8 61.5 24.8 61.6 24.8 61.8L18.6 64.3V22.6ZM6.2 67.5C7.9 67.5 9.3 68.9 9.3 70.6C9.3 72.3 7.9 73.7 6.2 73.7C4.5 73.7 3.1 72.3 3.1 70.6C3.1 68.9 4.5 67.5 6.2 67.5Z" fill="#130246"/>
<path d="M85.2 53.5C85.2 52.6 84.5 52 83.7 52H74.4C73.5 52 72.9 52.7 72.9 53.5V96.9H69.8V59.7C69.8 58.8 69.1 58.2 68.3 58.2H59C58.1 58.2 57.5 58.9 57.5 59.7V96.9H54.4V65.9C54.4 65 53.7 64.4 52.9 64.4H43.6C42.7 64.4 42.1 65.1 42.1 65.9V96.9H39V72.1C39 71.2 38.3 70.6 37.5 70.6H28.2C27.3 70.6 26.7 71.3 26.7 72.1V96.9H23.6V81.4C23.6 80.5 22.9 79.9 22.1 79.9H12.8C11.9 79.9 11.3 80.6 11.3 81.4V96.9H0V100H96V96.9H85.2V53.5ZM75.9 55.1H82.1V96.9H75.9V55.1ZM60.4 61.3H66.6V96.9H60.4V61.3ZM44.9 67.5H51.1V96.9H44.9V67.5ZM29.4 73.7H35.6V96.9H29.4V73.7ZM13.9 83H20.1V96.9H13.9V83Z" fill="#130246"/>
<path d="M23.2 35H29.4C30.2999 35 30.9 34.3 30.9 33.5V27.3C30.9 26.4 30.2 25.8 29.4 25.8H23.2C22.3 25.8 21.7 26.5 21.7 27.3V33.5C21.7 34.3 22.4 35 23.2 35ZM24.7999 28.8H27.9V31.9H24.7999V28.8Z" fill="#130246"/>
<path d="M35.6001 35H41.8001C42.7001 35 43.3001 34.3 43.3001 33.5V27.3C43.3001 26.4 42.6001 25.8 41.8001 25.8H35.6001C34.7001 25.8 34.1001 26.5 34.1001 27.3V33.5C34.1001 34.3 34.8001 35 35.6001 35ZM37.2001 28.8H40.3001V31.9H37.2001V28.8Z" fill="#130246"/>
<path d="M31 45.8001V39.6001C31 38.7001 30.3 38.1001 29.5 38.1001H23.3C22.4 38.1001 21.8 38.8001 21.8 39.6001V45.8001C21.8 46.7001 22.5 47.3001 23.3 47.3001H29.5C30.3 47.4001 31 46.7001 31 45.8001ZM27.9 44.3001H24.8V41.2001H27.9V44.3001Z" fill="#130246"/>
<path d="M35.6001 47.4H41.8001C42.7001 47.4 43.3001 46.7 43.3001 45.9V39.7C43.3001 38.8 42.6001 38.2 41.8001 38.2H35.6001C34.7001 38.2 34.1001 38.9 34.1001 39.7V45.9C34.1001 46.7 34.8001 47.4 35.6001 47.4ZM37.2001 41.2H40.3001V44.2999H37.2001V41.2Z" fill="#130246"/>
<path d="M54.2 19.5H60.4C61.3 19.5 61.9 18.8 61.9 18V11.7C61.9 10.8 61.2 10.2 60.4 10.2H54.2C53.3 10.2 52.7 10.9 52.7 11.7V17.9C52.6 18.8 53.3 19.5 54.2 19.5ZM55.7 13.3H58.8V16.4H55.7V13.3Z" fill="#130246"/>
<path d="M66.5999 19.5H72.7999C73.6999 19.5 74.2999 18.8 74.2999 18V11.7C74.2999 10.8 73.5999 10.2 72.7999 10.2H66.5999C65.6999 10.2 65.0999 10.9 65.0999 11.7V17.9C64.9999 18.8 65.6999 19.5 66.5999 19.5ZM68.0999 13.3H71.1999V16.4H68.0999V13.3Z" fill="#130246"/>
<path d="M54.2 31.9H60.4C61.3 31.9 61.9 31.2 61.9 30.4V24.2C61.9 23.3 61.2 22.7 60.4 22.7H54.2C53.3 22.7 52.7 23.4 52.7 24.2V30.4C52.6 31.2 53.3 31.9 54.2 31.9ZM55.7 25.7H58.8V28.7999H55.7V25.7Z" fill="#130246"/>
<path d="M66.5999 31.9H72.7999C73.6999 31.9 74.2999 31.2 74.2999 30.4V24.2C74.2999 23.3 73.5999 22.7 72.7999 22.7H66.5999C65.6999 22.7 65.0999 23.4 65.0999 24.2V30.4C64.9999 31.2 65.6999 31.9 66.5999 31.9ZM68.0999 25.7H71.1999V28.7999H68.0999V25.7Z" fill="#130246"/>
<defs>
<linearGradient id="paint0_linear" x1="138" y1="-8.76902e-06" x2="19.3269" y2="20.9727" gradientUnits="userSpaceOnUse">
<stop stop-color="#EEF1FF"/>
<stop offset="1" stop-color="#FDF2FF"/>
</linearGradient>
</defs>
</svg>
