<svg width="136" height="104" viewBox="0 0 136 104" fill="none" xmlns="http://www.w3.org/2000/svg">
<circle cx="84" cy="52" r="52" fill="url(#paint0_linear)"/>
<g clip-path="url(#clip0)">
<path d="M91.5555 71.0125C91.5555 70.9938 91.5555 70.9563 91.5555 70.9375C91.5181 70 91.1439 69.1188 90.4703 68.4438L85.7362 63.7188C85.1562 63.1375 84.2393 63.1563 83.6593 63.7188C83.0792 64.3 83.0979 65.2188 83.6593 65.8L87.4016 69.5313H78.6446C78.5697 69.4375 78.4949 69.325 78.4013 69.2313L71.3658 62.2C71.2722 62.1062 71.1786 62.0313 71.0851 61.9563V53.2375L80.1602 62.275C80.7402 62.8562 81.6571 62.8375 82.2372 62.275C82.8172 61.6937 82.7985 60.775 82.2372 60.1938L72.1891 50.1813C71.5155 49.5063 70.636 49.1313 69.6817 49.0938C69.663 49.0938 69.6443 49.0938 69.6256 49.0938C69.6069 49.0938 69.5695 49.0938 69.5507 49.0938C68.559 49.0938 67.6235 49.4875 66.9124 50.1813L48.5938 68.4438C47.8828 69.1563 47.5085 70.075 47.5085 71.0875C47.5085 72.1 47.9015 73.0188 48.5938 73.7313L66.9124 91.9938C67.586 92.6688 68.4655 93.0438 69.4011 93.0813C69.4385 93.0813 69.4946 93.0813 69.532 93.0813C70.5237 93.0813 71.4593 92.6875 72.1704 91.9938L90.489 73.7313C91.2 73.0188 91.5742 72.1 91.5742 71.0875C91.5555 71.0688 91.5555 71.0312 91.5555 71.0125ZM68.1287 53.1062V61.8813C67.979 61.975 67.8293 62.1063 67.6796 62.2375L60.6441 69.25C60.4944 69.4 60.3634 69.5688 60.2511 69.7563H51.4193L68.1287 53.1062ZM67.9228 88.8625L66.3136 87.2688L51.6999 72.7H60.4382C60.4944 72.775 60.5692 72.8688 60.6441 72.925L67.6796 79.9563C67.7544 80.0313 67.8293 80.0875 67.9041 80.1625L67.9228 88.8625ZM69.5133 77.6313L62.9456 71.0875L69.5133 64.5437L76.0811 71.0875L69.5133 77.6313ZM70.8418 89.125V80.3313C71.029 80.2188 71.1974 80.0875 71.3471 79.9375L78.3826 72.9063C78.5136 72.775 78.6446 72.625 78.7381 72.4563H87.5325L70.8418 89.125Z" fill="#130246"/>
<path d="M77.4844 20.1625L70.0185 8.70625C69.3262 7.6375 68.1474 7 66.875 7H39.9491C38.6767 7 37.4979 7.6375 36.8056 8.70625L29.3397 20.1625C28.4228 21.55 28.5351 23.3687 29.5829 24.6437L50.5024 50.275C51.2135 51.1562 52.28 51.6625 53.4027 51.6625C54.5254 51.6625 55.592 51.1562 56.303 50.275L68.1661 35.7438C68.6713 35.1063 68.5778 34.1875 67.9603 33.6813C67.3428 33.175 66.4072 33.2687 65.902 33.8875L56.5275 45.3625L63.5631 23.875H74.0977L68.952 30.175C68.4468 30.7937 68.5403 31.7313 69.1578 32.2375C69.7753 32.7438 70.7109 32.65 71.2161 32.0312L77.2412 24.6437C78.289 23.3687 78.3826 21.55 77.4844 20.1625ZM50.6895 9.94375L46.0678 17.0312L41.446 9.94375H50.6895ZM38.7329 11.1438L44.3276 19.7125L43.523 20.9313H32.3522L38.7329 11.1438ZM32.7452 23.875H43.3172L50.3153 45.4L32.7452 23.875ZM53.4214 45.4563L46.4046 23.875H51.4567C52.2613 23.875 52.9162 23.2188 52.9162 22.4125C52.9162 21.6062 52.2613 20.95 51.4567 20.95H47.0408L53.4214 11.1625L59.802 20.95H56.7334C55.9288 20.95 55.2739 21.6062 55.2739 22.4125C55.2739 23.2188 55.9288 23.875 56.7334 23.875H60.4944L53.4214 45.4563ZM56.1346 9.94375H65.3594L60.7376 17.0312L56.1346 9.94375ZM63.3011 20.9313L62.4965 19.7125L68.0913 11.1438L74.4719 20.9313H63.3011Z" fill="#130246"/>
<path d="M39.0884 64.3001C39.893 64.3001 40.5479 63.6438 40.5479 62.8376V50.7813C40.5479 49.6938 40.0801 48.6626 39.2755 47.9313L22.9029 32.9876C22.1732 32.3313 21.2376 31.9751 20.2646 31.9751C19.2916 31.9751 18.356 32.3313 17.6263 32.9876L1.25367 47.9313C0.449077 48.6626 0 49.7126 0 50.7813V83.9501C0 85.0188 0.449077 86.0501 1.23496 86.7813L17.6076 101.95C18.3373 102.625 19.2729 103 20.2646 103C21.2563 103 22.1919 102.625 22.9216 101.95L39.2942 86.7813C40.0801 86.0501 40.5292 85.0188 40.5292 83.9501V68.3313C40.5292 67.5251 39.8743 66.8688 39.0697 66.8688C38.2651 66.8688 37.6102 67.5251 37.6102 68.3313V81.9438L30.8179 79.7501V55.0001L37.6289 52.7876V62.8188C37.6289 63.6438 38.2838 64.3001 39.0884 64.3001ZM18.8051 35.8938V45.0251L10.8527 52.2813L3.48035 49.8813L18.8051 35.8938ZM2.93771 52.8063L9.74871 55.0001V79.7501L2.93771 81.9438V52.8063ZM18.8051 99.0626L3.46163 84.8501L10.834 82.4876L18.8051 89.8751V99.0626ZM37.0863 84.8501L21.7428 99.0626V89.8751L29.7139 82.4876L37.0863 84.8501ZM29.7139 52.2813L27.5995 50.3688C27.0007 49.8251 26.0652 49.8626 25.5225 50.4626C24.9799 51.0626 25.0173 52.0001 25.6161 52.5438L27.8802 54.6063V80.2001L20.2646 87.2501L12.649 80.2001V54.5876L20.2646 47.6501L21.8925 49.1501C22.4913 49.6938 23.4268 49.6563 23.9695 49.0563C24.5121 48.4563 24.4747 47.5188 23.8759 46.9751L21.7241 45.0251V35.8938L37.0676 49.8813L29.7139 52.2813Z" fill="#130246"/>
</g>
<defs>
<linearGradient id="paint0_linear" x1="136" y1="-8.76902e-06" x2="17.3269" y2="20.9727" gradientUnits="userSpaceOnUse">
<stop stop-color="#EEF1FF"/>
<stop offset="1" stop-color="#FDF2FF"/>
</linearGradient>
<clipPath id="clip0">
<rect y="7" width="91.5556" height="96" fill="white"/>
</clipPath>
</defs>
</svg>
