<svg width="138" height="104" viewBox="0 0 138 104" fill="none" xmlns="http://www.w3.org/2000/svg">
<circle cx="86" cy="52" r="52" fill="url(#paint0_linear)"/>
<g clip-path="url(#clip0)">
<path d="M86.8374 76.9494C81.1981 71.858 77.9618 64.6228 77.9618 57.0814C77.9618 50.076 80.6748 43.4533 85.5777 38.4193C86.6048 37.3666 86.8955 35.8162 86.2947 34.4955C83.5817 28.4853 79.9384 23.1451 75.4813 18.6471C74.4736 17.6326 72.9426 17.2881 71.6055 17.8049C70.1908 18.3408 68.6792 18.6279 67.1483 18.6279C61.1602 18.6279 56.0248 14.417 54.9589 8.61738C54.707 7.22011 53.583 6.09081 52.1683 5.80371C47.0135 4.77011 41.6262 4.71269 36.452 5.63144C34.9792 5.89941 33.8164 7.04785 33.5645 8.50253C32.8669 12.4646 30.2313 15.8525 26.5106 17.5369C25.7742 17.8623 25.4641 18.7236 25.7935 19.4318C26.123 20.1592 26.995 20.4654 27.7121 20.14C32.3243 18.0728 35.5799 13.9002 36.4326 8.98105C36.4714 8.71308 36.7039 8.50253 36.9752 8.44511C41.7812 7.60292 46.8004 7.64121 51.587 8.61738C51.8389 8.6748 52.0521 8.86621 52.1102 9.13417C53.428 16.2928 59.7649 21.499 67.1677 21.499C69.0668 21.499 70.9272 21.1545 72.6713 20.4846C72.9232 20.3889 73.2139 20.4654 73.4077 20.6568C77.613 24.9061 81.0624 29.9592 83.6398 35.6631C83.7561 35.9119 83.698 36.2182 83.4848 36.4096C78.0393 41.9795 75.0549 49.3103 75.0549 57.0623C75.0549 65.4076 78.64 73.4084 84.8801 79.0549C85.0739 79.2271 85.132 79.5143 85.0351 79.7631C83.3879 84.1463 81.2175 88.2615 78.5819 91.9748C78.4075 92.2236 78.0781 92.3193 77.7874 92.2045C75.9851 91.5346 74.086 91.0369 72.1868 90.7115C71.3923 90.5775 70.6365 91.1135 70.5202 91.8982C70.3846 92.683 70.9272 93.4104 71.7217 93.5443C73.4465 93.8314 75.1518 94.2908 76.7797 94.8842C77.1866 95.0373 77.6323 95.1139 78.0587 95.1139C79.202 95.1139 80.3066 94.5779 80.9849 93.6018C83.7755 89.6779 86.0622 85.3521 87.7869 80.7393C88.2714 79.4377 87.9032 77.9256 86.8374 76.9494Z" fill="#130246"/>
<path d="M65.9273 90.3671C57.9626 90.6925 50.5598 94.023 45.1143 99.7652C44.9011 99.9949 44.5911 100.129 44.281 100.129C43.9709 100.129 43.6609 99.9949 43.4477 99.7652C37.7503 93.7742 29.708 90.3289 21.3944 90.3289C17.4411 90.3289 13.5847 91.0753 9.96081 92.5492C9.7864 92.6257 9.55385 92.5683 9.43758 92.396C6.82141 88.7785 4.65097 84.7781 2.96499 80.4906C2.8681 80.2226 2.92624 79.9355 3.13941 79.7441C9.88329 74.0976 13.7591 65.8289 13.7591 57.1007C13.7591 48.966 10.484 41.3671 4.55407 35.7015C4.3409 35.5101 4.30214 35.2039 4.41842 34.955C7.0152 29.4425 10.4259 24.5425 14.5536 20.4273C14.7474 20.2359 15.0575 20.1785 15.3482 20.3125C17.2473 21.1164 19.2821 21.5375 21.375 21.5375C22.1696 21.5375 22.8285 20.8867 22.8285 20.1019C22.8285 19.3171 22.1696 18.6664 21.375 18.6664C19.6697 18.6664 18.0419 18.341 16.4915 17.6902C15.1156 17.0968 13.5459 17.3839 12.4995 18.4367C8.11981 22.7816 4.51531 27.9496 1.78288 33.7683C1.14337 35.1273 1.45343 36.7543 2.53866 37.7878C7.88726 42.8984 10.8522 49.7699 10.8522 57.1199C10.8522 65.025 7.36403 72.4898 1.25964 77.6195C0.116283 78.5765 -0.290676 80.1652 0.251936 81.5816C2.01542 86.0796 4.30215 90.3097 7.05396 94.1187C7.96477 95.3628 9.59261 95.8414 11.046 95.248C14.3211 93.9273 17.8093 93.2574 21.375 93.2574C29.0104 93.2574 36.0837 96.2816 41.316 101.775C42.0718 102.579 43.157 103.038 44.281 103.038C45.405 103.038 46.4708 102.579 47.246 101.775C52.1876 96.5878 58.8734 93.5636 66.063 93.2765C66.8575 93.2382 67.497 92.5683 67.4583 91.7835C67.4001 90.9605 66.7413 90.348 65.9273 90.3671Z" fill="#130246"/>
<path d="M18.1193 24.4086C17.7123 24.332 17.286 24.2555 16.8984 24.1598C16.1233 23.9684 15.3287 24.4277 15.1349 25.2125C14.9411 25.9781 15.4062 26.7629 16.2008 26.9543C16.6659 27.0691 17.1503 27.1649 17.6154 27.2606C17.693 27.2797 17.7898 27.2797 17.8674 27.2797C18.565 27.2797 19.1658 26.782 19.3014 26.093C19.4371 25.2891 18.9138 24.5426 18.1193 24.4086Z" fill="#130246"/>
<path d="M14.0305 87.9362C14.1274 87.9362 14.2436 87.9171 14.3405 87.8979C14.7669 87.8022 15.1932 87.7257 15.6196 87.6491C16.4141 87.5151 16.9373 86.7686 16.8017 85.9839C16.666 85.1991 15.9102 84.6823 15.1157 84.8163C14.6506 84.8929 14.1855 84.9886 13.7204 85.0843C12.9259 85.2565 12.4414 86.0221 12.5964 86.7878C12.7515 87.4768 13.3522 87.9362 14.0305 87.9362Z" fill="#130246"/>
<path d="M18.3907 59.2062C18.4101 59.2062 18.4101 59.2062 18.4295 59.2062C19.224 59.2062 19.8635 58.5745 19.8829 57.7897C19.8829 57.5601 19.8829 57.3112 19.8829 57.0815C19.8829 56.8519 19.8829 56.6222 19.8829 56.3925C19.8635 55.6077 19.224 54.9761 18.4295 54.9761C18.4101 54.9761 18.4101 54.9761 18.4101 54.9761C17.6155 54.9952 16.976 55.646 16.976 56.4308C16.976 56.6413 16.976 56.8519 16.976 57.0624C16.976 57.2729 16.976 57.5026 16.976 57.7132C16.9373 58.5362 17.5768 59.187 18.3907 59.2062Z" fill="#130246"/>
<path d="M17.8673 45.2526C17.7123 44.8124 17.5379 44.3721 17.3829 43.9511C17.0922 43.2046 16.2395 42.86 15.5031 43.1471C14.7473 43.4343 14.3985 44.2764 14.6892 45.0038C14.8442 45.4057 14.9992 45.8077 15.1349 46.2097C15.3481 46.803 15.91 47.1667 16.5108 47.1667C16.6658 47.1667 16.8402 47.1475 16.9953 47.0901C17.7317 46.8221 18.1193 46.0182 17.8673 45.2526Z" fill="#130246"/>
<path d="M19.1853 50.0761C19.0303 49.2914 18.2745 48.7937 17.4799 48.9468C16.6854 49.1 16.1816 49.8464 16.3366 50.6312C16.4141 51.0523 16.4916 51.4734 16.5691 51.8945C16.6854 52.6027 17.3055 53.1003 18.0032 53.1003C18.0807 53.1003 18.1582 53.1003 18.2357 53.0812C19.0303 52.9664 19.5729 52.2199 19.4372 51.4351C19.3597 50.9949 19.2628 50.5164 19.1853 50.0761Z" fill="#130246"/>
<path d="M49.6296 12.2926C49.4552 11.7758 48.9901 11.3929 48.4475 11.3355C48.2537 11.3164 48.0599 11.2781 47.8661 11.259C47.0715 11.1633 46.3545 11.7375 46.2576 12.5222C46.1801 13.1922 46.5677 13.7855 47.1878 14.0152C47.4204 14.5703 47.963 14.9148 48.5444 14.9148C48.7188 14.9148 48.8932 14.8765 49.0676 14.8191C49.8234 14.532 50.1916 13.709 49.9009 12.9625C49.7846 12.7519 49.7071 12.5222 49.6296 12.2926Z" fill="#130246"/>
<path d="M51.9746 16.8864C51.5095 16.2356 50.6181 16.0825 49.9592 16.5419C49.3003 17.0013 49.1453 17.9009 49.6104 18.5325C49.8817 18.9153 50.1724 19.3173 50.4824 19.681C50.7731 20.0255 51.1994 20.2169 51.6064 20.2169C51.9358 20.2169 52.2459 20.1212 52.5172 19.8915C53.1373 19.3939 53.2342 18.4942 52.7304 17.8817C52.4591 17.5564 52.2071 17.2118 51.9746 16.8864Z" fill="#130246"/>
<path d="M20.1736 87.2091C20.193 87.2091 20.2124 87.2091 20.2317 87.2091C20.6193 87.1899 20.9875 87.1899 21.3751 87.1899H21.5301C22.3247 87.1899 22.9836 86.5583 22.9836 85.7544C22.9836 84.9696 22.3441 84.3188 21.5301 84.3188H21.3557C20.9488 84.3188 20.5224 84.3188 20.1155 84.338C19.3209 84.3571 18.6814 85.0271 18.7202 85.8118C18.7589 86.5966 19.3984 87.2091 20.1736 87.2091Z" fill="#130246"/>
<path d="M17.3441 70.2503C17.5185 69.8101 17.6929 69.3699 17.8286 68.9488C18.0999 68.2023 17.6929 67.3792 16.9372 67.1113C16.1814 66.8433 15.3481 67.2453 15.0768 67.9918C14.9411 68.3937 14.7861 68.7957 14.631 69.1976C14.3404 69.9441 14.7086 70.7671 15.445 71.0543C15.6194 71.1308 15.7938 71.15 15.9876 71.15C16.569 71.15 17.1116 70.8054 17.3441 70.2503Z" fill="#130246"/>
<path d="M19.1658 64.1253C19.2627 63.6659 19.3402 63.2066 19.4177 62.7472C19.5533 61.9624 19.0107 61.2351 18.2162 61.1011C17.4217 60.9671 16.6853 61.5031 16.5496 62.2878C16.4721 62.7089 16.3946 63.13 16.3171 63.5511C16.162 64.3359 16.6659 65.0824 17.4604 65.2355C17.5573 65.2546 17.6542 65.2546 17.7511 65.2546C18.4294 65.2929 19.0301 64.8144 19.1658 64.1253Z" fill="#130246"/>
<path d="M51.5093 87.8215C51.083 88.0129 50.6566 88.2234 50.2497 88.4531C49.5326 88.8168 49.2613 89.6973 49.6295 90.3863C49.8815 90.884 50.3853 91.152 50.9085 91.152C51.1411 91.152 51.3736 91.0945 51.5868 90.9797C51.9744 90.7883 52.362 90.5969 52.7496 90.4055C53.4666 90.061 53.7766 89.1996 53.4278 88.4914C53.0984 87.7832 52.2263 87.477 51.5093 87.8215Z" fill="#130246"/>
<path d="M29.3396 22.9156C28.9521 23.0878 28.5645 23.2601 28.1769 23.4132C27.4211 23.7003 27.0529 24.5425 27.363 25.2699C27.5955 25.8441 28.1381 26.1886 28.7195 26.1886C28.8939 26.1886 29.0683 26.1503 29.2427 26.0929C29.6885 25.9206 30.1342 25.7292 30.5799 25.5187C31.2969 25.1742 31.607 24.3128 31.2775 23.6046C30.9481 22.8964 30.076 22.571 29.3396 22.9156Z" fill="#130246"/>
<path d="M34.0489 23.0879C34.3784 23.0879 34.7078 22.9731 34.9791 22.7625C35.3473 22.4563 35.7155 22.1309 36.0644 21.8246C36.6457 21.2887 36.6845 20.3699 36.1225 19.7957C35.5799 19.2215 34.6497 19.1832 34.0683 19.7383C33.7583 20.0254 33.4482 20.2934 33.1187 20.5614C32.4986 21.059 32.4017 21.9778 32.925 22.5903C33.2156 22.9157 33.642 23.0879 34.0489 23.0879Z" fill="#130246"/>
<path d="M12.6544 40.8696C12.9257 41.329 13.4102 41.597 13.914 41.597C14.166 41.597 14.3985 41.5395 14.6311 41.4055C15.3287 41.0227 15.5806 40.1423 15.1737 39.4532C14.9411 39.0512 14.7086 38.6493 14.4566 38.2473C14.0303 37.5774 13.1389 37.3669 12.4606 37.788C11.7823 38.2091 11.5692 39.0895 11.9955 39.7595C12.2281 40.1423 12.4412 40.5059 12.6544 40.8696Z" fill="#130246"/>
<path d="M21.2393 26.1696C21.2975 26.9352 21.937 27.5094 22.6927 27.5094C22.7315 27.5094 22.7509 27.5094 22.7896 27.5094C23.2741 27.4712 23.7586 27.4329 24.2431 27.3755C25.0376 27.2798 25.5996 26.5524 25.4833 25.7676C25.3864 24.9829 24.65 24.4278 23.8555 24.5426C23.4485 24.6001 23.0222 24.6383 22.5959 24.6575C21.8013 24.6958 21.2006 25.3657 21.2393 26.1696Z" fill="#130246"/>
<path d="M31.0063 87.056C30.7544 87.8025 31.1613 88.6255 31.9365 88.8744C32.3435 89.0083 32.7504 89.1615 33.1574 89.2955C33.3318 89.3529 33.5062 89.3912 33.6612 89.3912C34.2426 89.3912 34.8046 89.0275 35.0178 88.4533C35.3084 87.7068 34.9209 86.8837 34.1651 86.5966C33.7194 86.4243 33.2736 86.2712 32.8279 86.1372C32.0721 85.9075 31.2582 86.3095 31.0063 87.056Z" fill="#130246"/>
<path d="M24.9214 85.8883C24.8052 86.6731 25.3478 87.4005 26.1423 87.5153C26.5687 87.5727 26.995 87.6493 27.4213 87.7259C27.5182 87.745 27.5957 87.745 27.6926 87.745C28.3709 87.745 28.991 87.2665 29.1267 86.5774C29.2817 85.7926 28.7585 85.0462 27.9639 84.9122C27.4989 84.8356 27.0338 84.759 26.5687 84.6825C25.7741 84.5676 25.0377 85.1036 24.9214 85.8883Z" fill="#130246"/>
<path d="M10.7747 32.7922C10.0771 32.4094 9.18567 32.6773 8.79809 33.3664C8.72057 33.5195 8.62368 33.6727 8.54616 33.8258C8.25547 34.3617 8.33299 34.9934 8.73995 35.4527C8.91436 35.6633 9.08877 35.8547 9.26318 36.0652C9.55387 36.4098 9.96083 36.582 10.3872 36.582C10.7166 36.582 11.0461 36.4672 11.3174 36.2566C11.9375 35.759 12.015 34.8594 11.5111 34.2469C11.5887 33.6727 11.3174 33.0984 10.7747 32.7922Z" fill="#130246"/>
<path d="M11.2978 77.9641C10.6777 77.4665 9.76684 77.543 9.24361 78.1555C8.97231 78.4809 8.68162 78.8063 8.39094 79.1317C7.84832 79.725 7.90646 80.6247 8.50721 81.1606C8.77852 81.4094 9.12734 81.5243 9.47616 81.5243C9.88312 81.5243 10.2707 81.3711 10.5614 81.0457C10.8714 80.7012 11.1815 80.3375 11.4916 79.993C12.0148 79.3614 11.9179 78.4618 11.2978 77.9641Z" fill="#130246"/>
<path d="M11.7824 31.1654C12.0344 31.3377 12.325 31.4142 12.5963 31.4142C13.0614 31.4142 13.5265 31.2037 13.7978 30.7826C14.0498 30.4189 14.3017 30.0552 14.5536 29.7298C15.0187 29.0791 14.8831 28.1986 14.2242 27.7201C13.5653 27.2607 12.6739 27.3947 12.1894 28.0455C11.9181 28.4091 11.6468 28.792 11.3755 29.1748C10.9491 29.8255 11.1235 30.7252 11.7824 31.1654Z" fill="#130246"/>
<path d="M9.03066 82.8256C8.31364 83.1893 8.04233 84.0697 8.41053 84.7588C8.6237 85.1608 8.85625 85.5819 9.06942 85.9647C9.34072 86.4432 9.8252 86.692 10.3484 86.692C10.581 86.692 10.8329 86.6346 11.0655 86.5006C11.7631 86.1178 12.015 85.2373 11.6274 84.5483C11.4143 84.1654 11.2011 83.7826 11.0073 83.3998C10.6197 82.7299 9.74768 82.4619 9.03066 82.8256Z" fill="#130246"/>
<path d="M12.4413 76.4136C12.6739 76.5667 12.9452 76.6241 13.1971 76.6241C13.6816 76.6241 14.166 76.3753 14.4374 75.9542C14.6893 75.5522 14.9218 75.1503 15.1544 74.7483C15.542 74.0593 15.3094 73.1788 14.6118 72.796C13.9141 72.4132 13.0227 72.6429 12.6351 73.3319C12.4219 73.6956 12.2088 74.0784 11.9762 74.4421C11.5499 75.0929 11.763 75.9925 12.4413 76.4136Z" fill="#130246"/>
<path d="M69.1443 53.2727C69.0862 53.7321 69.0474 54.1915 69.0281 54.67C68.9699 55.4548 69.5707 56.1438 70.3846 56.2012C70.4233 56.2012 70.4427 56.2012 70.4815 56.2012C71.2373 56.2012 71.8768 55.627 71.9349 54.8614C71.9543 54.4403 71.993 54.0001 72.0512 53.579C72.1287 52.7942 71.5473 52.086 70.7528 52.0095C69.9389 51.9137 69.2218 52.488 69.1443 53.2727Z" fill="#130246"/>
<path d="M70.3845 47.0136C70.2488 47.4539 70.1325 47.9133 70.0163 48.3535C69.8225 49.1191 70.2876 49.9039 71.0821 50.0953C71.1984 50.1144 71.3147 50.1336 71.4309 50.1336C72.0898 50.1336 72.6712 49.6933 72.8456 49.0426C72.9425 48.6215 73.0588 48.2195 73.1944 47.7984C73.427 47.0328 72.9813 46.248 72.2061 46.0183C71.4309 45.8269 70.617 46.2672 70.3845 47.0136Z" fill="#130246"/>
<path d="M77.2446 30.5718C76.8182 29.9019 75.9268 29.7105 75.2485 30.1316C74.5703 30.5527 74.3765 31.4332 74.8028 32.1031C75.0354 32.4668 75.2679 32.8496 75.4811 33.2132C75.7524 33.6726 76.2369 33.9214 76.7407 33.9214C76.9927 33.9214 77.2446 33.864 77.4771 33.7109C78.1748 33.3089 78.3879 32.4285 77.981 31.7394C77.7484 31.3566 77.4965 30.9546 77.2446 30.5718Z" fill="#130246"/>
<path d="M73.4852 25.4613C72.962 24.8488 72.0512 24.7722 71.4311 25.289C70.8109 25.8058 70.7334 26.7054 71.2567 27.3179C71.528 27.6433 71.8186 27.9878 72.0899 28.3324C72.3806 28.696 72.807 28.8875 73.2333 28.8875C73.5434 28.8875 73.8728 28.7917 74.1247 28.5812C74.7642 28.0835 74.8611 27.1839 74.3573 26.5714C74.0666 26.1695 73.7759 25.825 73.4852 25.4613Z" fill="#130246"/>
<path d="M76.5081 39.0512C76.9732 39.0512 77.4189 38.8406 77.7096 38.4387C77.9615 38.0941 78.2134 37.7305 78.4654 37.4051C78.9498 36.7734 78.8142 35.8738 78.1747 35.3953C77.5352 34.9168 76.6244 35.0508 76.1399 35.6824C75.8492 36.0461 75.5779 36.4289 75.3066 36.8117C74.8415 37.4625 75.0159 38.3621 75.6748 38.8023C75.9461 38.9746 76.2174 39.0512 76.5081 39.0512Z" fill="#130246"/>
<path d="M67.8651 24.6574C67.4581 24.6766 67.0318 24.6766 66.6054 24.6574C65.8109 24.6383 65.1326 25.2508 65.1132 26.0547C65.0939 26.8395 65.714 27.5094 66.5279 27.5285C66.7411 27.5285 66.9543 27.5285 67.1674 27.5285C67.4387 27.5285 67.71 27.5285 67.9813 27.5094C68.7759 27.4711 69.4154 26.8203 69.3766 26.0164C69.3573 25.2508 68.679 24.6383 67.8651 24.6574Z" fill="#130246"/>
<path d="M71.6636 86.0033C71.7411 85.2185 71.1403 84.5103 70.3458 84.4529C69.8807 84.4146 69.4156 84.3763 68.9311 84.3572C68.1366 84.3189 67.4583 84.9314 67.4002 85.7162C67.3614 86.5009 67.9815 87.19 68.7761 87.2283C69.2024 87.2474 69.6481 87.2857 70.0745 87.324C70.1132 87.324 70.152 87.324 70.2101 87.324C70.9659 87.3048 71.6054 86.7498 71.6636 86.0033Z" fill="#130246"/>
<path d="M56.9742 21.6716C56.6254 21.4419 56.2766 21.2122 55.9471 20.9634C55.3076 20.4848 54.3968 20.5997 53.9123 21.2313C53.4279 21.863 53.5441 22.7626 54.1836 23.2411C54.5712 23.5282 54.9588 23.8153 55.3658 24.0641C55.6177 24.2173 55.889 24.2938 56.1603 24.2938C56.6254 24.2938 57.0905 24.0641 57.3812 23.643C57.8269 22.9923 57.6331 22.1118 56.9742 21.6716Z" fill="#130246"/>
<path d="M57.5556 85.6011C57.1099 85.716 56.6448 85.85 56.1991 86.0031C55.4433 86.2519 55.017 87.0558 55.2495 87.8023C55.4433 88.4148 56.0247 88.7976 56.6254 88.7976C56.7805 88.7976 56.9161 88.7785 57.0712 88.721C57.4781 88.5871 57.9045 88.4722 58.3114 88.3574C59.0866 88.1468 59.5323 87.3621 59.3191 86.5964C59.1253 85.8308 58.3308 85.3906 57.5556 85.6011Z" fill="#130246"/>
<path d="M63.8924 84.4527C63.4273 84.491 62.9429 84.5484 62.4778 84.6058C61.6832 84.7015 61.1212 85.4289 61.2181 86.2136C61.315 86.941 61.9352 87.4578 62.6522 87.4578C62.7103 87.4578 62.7878 87.4578 62.846 87.4386C63.2723 87.3812 63.6987 87.3429 64.1444 87.3047C64.9389 87.2281 65.5397 86.539 65.4621 85.7543C65.3846 84.9695 64.687 84.3761 63.8924 84.4527Z" fill="#130246"/>
<path d="M62.1871 24.0067C61.7802 23.8918 61.3926 23.777 60.9856 23.643C60.2299 23.375 59.3966 23.777 59.1253 24.5235C58.8539 25.27 59.2609 26.093 60.0167 26.361C60.4818 26.5141 60.9469 26.6672 61.412 26.8012C61.5476 26.8395 61.6639 26.8586 61.7996 26.8586C62.4391 26.8586 63.0205 26.4375 63.1949 25.8059C63.408 25.0211 62.9623 24.2172 62.1871 24.0067Z" fill="#130246"/>
<path d="M74.7059 40.4484C73.9889 40.0847 73.1169 40.3718 72.7487 41.0992C72.5355 41.5202 72.3417 41.9413 72.1479 42.3624C71.8185 43.0898 72.1479 43.932 72.8649 44.2574C73.0587 44.3531 73.2719 44.3913 73.4657 44.3913C74.0277 44.3913 74.5509 44.0851 74.7835 43.5491C74.9579 43.1663 75.1517 42.7644 75.3454 42.3816C75.7136 41.6734 75.423 40.812 74.7059 40.4484Z" fill="#130246"/>
<path d="M78.6786 84.2422C79.2212 84.2422 79.7251 83.9359 79.9964 83.4382C80.1902 83.0363 80.4033 82.6152 80.5971 82.1941C80.9266 81.4668 80.5971 80.6246 79.8801 80.2992C79.1437 79.9738 78.291 80.2992 77.9616 81.0074C77.7872 81.4093 77.5934 81.7921 77.3996 82.1941C77.0508 82.9023 77.3414 83.7636 78.0778 84.1082C78.2329 84.2039 78.4654 84.2422 78.6786 84.2422Z" fill="#130246"/>
<path d="M37.3628 91.2094C37.731 91.4199 38.1185 91.6305 38.4867 91.841C38.7193 91.975 38.9712 92.0516 39.2231 92.0516C39.727 92.0516 40.2115 91.8027 40.4828 91.3434C40.8897 90.6543 40.6572 89.7738 39.9789 89.3719C39.572 89.1422 39.165 88.9125 38.758 88.6828C38.0604 88.3 37.169 88.568 36.7814 89.257C36.4132 89.9652 36.6651 90.8266 37.3628 91.2094Z" fill="#130246"/>
<path d="M39.5524 14.7044C38.8548 14.3216 37.9634 14.5704 37.5758 15.2595C37.382 15.6231 37.1495 15.9868 36.9363 16.3313C36.51 17.0013 36.7037 17.8817 37.3626 18.322C37.6146 18.4751 37.8859 18.5517 38.1572 18.5517C38.6416 18.5517 39.1067 18.322 39.378 17.9009C39.63 17.4989 39.8819 17.0778 40.1144 16.6759C40.5214 15.9485 40.2695 15.0872 39.5524 14.7044Z" fill="#130246"/>
<path d="M76.7022 85.5627C76.2565 85.4479 75.7914 85.333 75.3263 85.2182C74.5511 85.0459 73.7566 85.5245 73.5822 86.2901C73.4078 87.0557 73.8922 87.8405 74.6674 88.0127C75.0937 88.1084 75.5201 88.2041 75.927 88.319C76.0627 88.3573 76.1789 88.3764 76.3146 88.3764C76.9541 88.3764 77.5355 87.9553 77.7099 87.3237C77.9231 86.558 77.4773 85.7733 76.7022 85.5627Z" fill="#130246"/>
<path d="M42.8082 11.0485C42.3431 11.0676 41.8586 11.0868 41.3935 11.1251C40.599 11.1825 39.9788 11.8716 40.037 12.6563C40.0951 13.4219 40.7346 13.9962 41.4904 13.9962C41.5292 13.9962 41.5485 13.9962 41.5873 13.9962C42.0136 13.9579 42.4594 13.9387 42.8857 13.9387C43.6802 13.9196 44.3198 13.2497 44.3004 12.4649C44.281 11.6801 43.6027 11.0294 42.8082 11.0485Z" fill="#130246"/>
<path d="M44.8237 91.8985C44.6299 92.0516 44.4943 92.2238 44.3974 92.4344C44.3199 92.3578 44.223 92.3004 44.1455 92.2238C43.5253 91.7262 42.5951 91.8219 42.1107 92.4535C41.6068 93.066 41.7037 93.9848 42.3432 94.4633C42.6727 94.7313 43.0215 94.9992 43.3509 95.2863C43.6222 95.516 43.9711 95.6309 44.3005 95.6309C44.7075 95.6309 45.1144 95.4586 45.4051 95.1332C45.5795 94.9418 45.6958 94.693 45.7345 94.4633H45.7539C46.064 94.4633 46.3741 94.3676 46.6454 94.157C46.9942 93.8891 47.343 93.6402 47.6918 93.3914C48.3507 92.932 48.4864 92.0324 48.0213 91.3817C47.5562 90.7309 46.6454 90.5969 45.9865 91.0563C45.5601 91.3242 45.1919 91.6113 44.8237 91.8985Z" fill="#130246"/>
<path d="M77.7871 75.8394C77.322 75.1886 76.4306 75.0164 75.7717 75.4758C75.1128 75.9351 74.9384 76.8156 75.4035 77.4664C75.6748 77.8492 75.9461 78.232 76.2368 78.5957C76.5275 78.9785 76.9538 79.1699 77.3996 79.1699C77.7096 79.1699 78.0003 79.0742 78.2716 78.8828C78.9111 78.4043 79.0468 77.5047 78.5623 76.873C78.291 76.5476 78.0391 76.2031 77.7871 75.8394Z" fill="#130246"/>
<path d="M70.7721 62.307C71.5666 62.2113 72.148 61.5031 72.0511 60.7183C72.0123 60.2972 71.9736 59.857 71.9348 59.4359C71.8767 58.6511 71.179 58.0577 70.3845 58.1152C69.59 58.1726 68.9892 58.8617 69.0473 59.6464C69.0861 60.1058 69.1249 60.5843 69.183 61.0437C69.2605 61.771 69.9 62.3261 70.617 62.3261C70.6558 62.307 70.7139 62.307 70.7721 62.307Z" fill="#130246"/>
<path d="M70.4426 67.2837C70.6364 67.9154 71.2178 68.3173 71.8379 68.3173C71.9736 68.3173 72.1092 68.2982 72.2449 68.2599C73.0201 68.0302 73.4464 67.2263 73.2332 66.4798C73.117 66.0779 73.0007 65.6568 72.8844 65.2357C72.6906 64.4701 71.8961 64.0107 71.1209 64.2021C70.3458 64.3935 69.8807 65.1783 70.0744 65.9439C70.1907 66.3841 70.307 66.8435 70.4426 67.2837Z" fill="#130246"/>
<path d="M74.8612 70.7479C74.5318 70.0206 73.6597 69.7143 72.9427 70.0397C72.2063 70.3651 71.8962 71.2265 72.2257 71.9347C72.4195 72.3557 72.6326 72.7768 72.8458 73.1979C73.0977 73.6956 73.621 73.9827 74.1442 73.9827C74.3574 73.9827 74.5899 73.9253 74.8031 73.8296C75.5201 73.4659 75.8108 72.6046 75.4426 71.8964C75.2294 71.5327 75.0356 71.1307 74.8612 70.7479Z" fill="#130246"/>
</g>
<defs>
<linearGradient id="paint0_linear" x1="138" y1="-8.76902e-06" x2="19.3269" y2="20.9727" gradientUnits="userSpaceOnUse">
<stop stop-color="#EEF1FF"/>
<stop offset="1" stop-color="#FDF2FF"/>
</linearGradient>
<clipPath id="clip0">
<rect y="5" width="88" height="98" fill="white"/>
</clipPath>
</defs>
</svg>
