<svg width="135" height="104" viewBox="0 0 135 104" fill="none" xmlns="http://www.w3.org/2000/svg">
<circle cx="83" cy="52" r="52" fill="url(#paint0_linear)"/>
<g clip-path="url(#clip0)">
<path d="M41.3 11.2H49.1C49.9 11.2 50.6 10.5 50.6 9.69995C50.6 8.89995 49.9 8.19995 49.1 8.19995H41.3C40.5 8.19995 39.8 8.89995 39.8 9.69995C39.8 10.6 40.5 11.2 41.3 11.2Z" fill="#130246"/>
<path d="M90.3 39.0999L85.1 17.5999C85 17.3999 83.8 12.3999 78.8 10.1999C75.2 8.6999 63.8 4.2999 60.9 3.1999C60.6 2.9999 60.3 2.8999 59.9 2.8999H59.7H30.6H30.5C30.5 2.8999 30.5 2.8999 30.4 2.8999H30.3C30.3 2.8999 30.3 2.8999 30.2 2.8999C30.2 2.8999 30.2 2.8999 30.1 2.8999C30.1 2.8999 30.1 2.8999 30 2.8999C29.4 3.0999 15.5 8.3999 11.5 10.0999C6.69997 12.0999 5.29997 16.8999 5.19997 17.3999L1.59997 32.8999L-2.99513e-05 39.0999C-0.20003 39.7999 0.19997 40.5999 0.89997 40.8999L15.8 46.7999V91.2999V97.4999C15.8 98.2999 16.5 98.9999 17.3 98.9999H73C73.8 98.9999 74.5 98.2999 74.5 97.4999V91.2999V62.4999C74.5 61.6999 73.8 60.9999 73 60.9999C72.2 60.9999 71.5 61.6999 71.5 62.4999V89.7999H34.2C33.4 89.7999 32.7 90.4999 32.7 91.2999C32.7 92.0999 33.4 92.7999 34.2 92.7999H71.5V95.9999H18.9V92.8999H29.2C30 92.8999 30.7 92.1999 30.7 91.3999C30.7 90.5999 30 89.8999 29.2 89.8999H18.9V45.8999V39.3999V27.4999C18.9 27.1999 18.8 26.9999 18.7 26.6999L11 14.0999C11.5 13.6999 12.1 13.2999 12.7 13.0999C15.8 11.7999 25.1 8.1999 29.2 6.6999C30.2 15.6999 37.1 22.8999 45.3 22.8999C53.4 22.8999 60.3 15.6999 61.4 6.7999C65.6 8.3999 74.6 11.7999 77.7 13.0999C78.4 13.3999 78.9 13.6999 79.4 14.0999L71.8 26.6999C71.7 26.8999 71.6 27.1999 71.6 27.4999V39.1999V45.6999V57.2999C71.6 58.0999 72.3 58.7999 73.1 58.7999C73.9 58.7999 74.6 58.0999 74.6 57.2999V46.7999L89.5 40.8999C90.1 40.5999 90.5 39.8999 90.3 39.0999ZM15.9 43.5999L3.29997 38.5999L4.09997 35.3999L15.9 40.2999V43.5999ZM15.9 27.9999V36.9999L4.79997 32.3999L8.19997 18.3999C8.19997 18.3999 8.39997 17.5999 8.99997 16.5999L15.9 27.9999ZM45.3 19.7999C39.3 19.7999 32.9 14.2999 32.2 5.9999H58.4C57.7 14.2999 51.3 19.7999 45.3 19.7999ZM74.5 27.9999L81.4 16.5999C81.8 17.1999 82 17.7999 82.1 18.0999V18.1999C82.1 18.1999 82.1 18.1999 82.1 18.2999L85.5 32.2999L74.5 36.9999V27.9999ZM74.5 43.5999V40.2999L86.3 35.3999L87.1 38.5999L74.5 43.5999Z" fill="#130246"/>
</g>
<defs>
<linearGradient id="paint0_linear" x1="135" y1="-8.76902e-06" x2="16.3269" y2="20.9727" gradientUnits="userSpaceOnUse">
<stop stop-color="#EEF1FF"/>
<stop offset="1" stop-color="#FDF2FF"/>
</linearGradient>
<clipPath id="clip0">
<rect y="3" width="90.4" height="96" fill="white"/>
</clipPath>
</defs>
</svg>
