<svg width="122" height="104" viewBox="0 0 122 104" fill="none" xmlns="http://www.w3.org/2000/svg">
<circle cx="70" cy="52" r="52" fill="url(#paint0_linear)"/>
<g clip-path="url(#clip0)">
<path d="M68.1848 41.337L46.4674 18.2501C45.3913 17.0761 43.7283 16.3914 42.0652 16.3914C40.4022 16.3914 38.837 17.0761 37.663 18.2501C37.0761 18.837 37.0761 19.9131 37.7609 20.5001C38.3478 21.087 39.3261 21.087 40.0109 20.4022C40.5978 19.8153 41.2826 19.5218 42.0652 19.5218C42.8478 19.5218 43.6304 19.8153 44.1196 20.4022L65.5435 43.0001V91.0327C65.5435 92.5979 64.2717 93.8696 62.7065 93.8696H21.6196C20.0544 93.8696 18.7826 92.5979 18.7826 91.0327V86.6305C18.7826 85.7501 18.0978 85.0653 17.2174 85.0653C16.337 85.0653 15.6522 85.7501 15.6522 86.6305V91.0327C15.6522 94.3587 18.2935 97.0001 21.6196 97.0001H62.7065C66.0326 97.0001 68.6739 94.3587 68.6739 91.0327V42.4131C68.6739 42.0218 68.4783 41.6305 68.1848 41.337Z" fill="#130246"/>
<path d="M20.25 22.163C20.25 25.5869 23.087 28.4238 26.5109 28.4238C29.9348 28.4238 32.7717 25.5869 32.7717 22.163C32.7717 18.7391 29.9348 15.9021 26.5109 15.9021C23.087 15.9021 20.25 18.6412 20.25 22.163ZM29.6413 22.163C29.6413 23.9238 28.2717 25.2934 26.5109 25.2934C24.75 25.2934 23.3804 23.9238 23.3804 22.163C23.3804 20.4021 24.75 19.0325 26.5109 19.0325C28.2717 19.0325 29.6413 20.4021 29.6413 22.163Z" fill="#130246"/>
<path d="M52.6304 31.9457L30.913 8.8587C29.7391 7.68478 28.1739 7 26.5109 7C24.8478 7 23.2826 7.68478 22.1087 8.8587L0.391304 31.9457C0.195652 32.2391 0 32.6304 0 33.0217V81.6413C0 84.9674 2.6413 87.6087 5.96739 87.6087H47.0543C50.3804 87.6087 53.0217 84.9674 53.0217 81.6413V33.0217C53.0217 32.6304 52.9239 32.2391 52.6304 31.9457ZM49.8913 81.6413C49.8913 83.2065 48.6196 84.4783 47.0543 84.4783H5.96739C4.40217 84.4783 3.13043 83.2065 3.13043 81.6413V33.7065L24.4565 11.0109C25.0435 10.4239 25.7283 10.1304 26.5109 10.1304C27.2935 10.1304 28.0761 10.4239 28.5652 11.0109L49.8913 33.7065V81.6413Z" fill="#130246"/>
<path d="M40.5978 47.1086H9.3913C8.51086 47.1086 7.82608 47.7934 7.82608 48.6739C7.82608 49.5543 8.51086 50.2391 9.3913 50.2391H40.5978C41.4783 50.2391 42.163 49.5543 42.163 48.6739C42.0652 47.7934 41.3804 47.1086 40.5978 47.1086Z" fill="#130246"/>
<path d="M23.3804 53.3696H9.3913C8.51086 53.3696 7.82608 54.0544 7.82608 54.9348C7.82608 55.8153 8.51086 56.5001 9.3913 56.5001H23.4783C24.3587 56.5001 25.0435 55.8153 25.0435 54.9348C24.9456 54.0544 24.2609 53.3696 23.3804 53.3696Z" fill="#130246"/>
<path d="M23.3804 73.6196H9.3913C8.51086 73.6196 7.82608 74.3044 7.82608 75.1848C7.82608 76.0653 8.51086 76.7501 9.3913 76.7501H23.4783C24.3587 76.7501 25.0435 76.0653 25.0435 75.1848C24.9456 74.3044 24.2609 73.6196 23.3804 73.6196Z" fill="#130246"/>
<path d="M57.7174 57.9673H51.4565C50.5761 57.9673 49.8913 58.6521 49.8913 59.5325C49.8913 60.4129 50.5761 61.0977 51.4565 61.0977H57.7174C58.5978 61.0977 59.2826 60.4129 59.2826 59.5325C59.2826 58.6521 58.5978 57.9673 57.7174 57.9673Z" fill="#130246"/>
<path d="M57.7174 64.2283H51.4565C50.5761 64.2283 49.8913 64.9131 49.8913 65.7935C49.8913 66.6739 50.5761 67.3587 51.4565 67.3587H57.7174C58.5978 67.3587 59.2826 66.6739 59.2826 65.7935C59.2826 64.9131 58.5978 64.2283 57.7174 64.2283Z" fill="#130246"/>
</g>
<defs>
<linearGradient id="paint0_linear" x1="122" y1="-8.76902e-06" x2="3.32686" y2="20.9727" gradientUnits="userSpaceOnUse">
<stop stop-color="#EEF1FF"/>
<stop offset="1" stop-color="#FDF2FF"/>
</linearGradient>
<clipPath id="clip0">
<rect y="7" width="68.6739" height="90" fill="white"/>
</clipPath>
</defs>
</svg>
