<svg width="116" height="104" viewBox="0 0 116 104" fill="none" xmlns="http://www.w3.org/2000/svg">
<circle cx="64" cy="52" r="52" fill="url(#paint0_linear)"/>
<g clip-path="url(#clip0)">
<path d="M59.5 92.4999C58.7 92.4999 58.1 93.0999 58.1 93.8999V97.0999H2.8V65.0999C2.8 63.7999 3 62.4999 3.5 61.3999L7.4 51.7999C8.6 48.8999 8.3 46.4999 8.4 45.7999C8.4 44.9999 7.8 44.3999 7 44.3999C6.2 44.3999 5.6 45.1999 5.6 45.9999C5.6 46.6999 5.8 48.4999 4.9 50.8999L1 60.3999C0.4 61.8999 0 63.5999 0 65.1999V98.5999C0 99.3999 0.6 99.9999 1.4 99.9999H59.5C60.3 99.9999 60.9 99.3999 60.9 98.5999V93.8999C60.9 93.1999 60.3 92.4999 59.5 92.4999Z" fill="#130246"/>
<path d="M60 60.4L56.1 50.8C55.6 49.6 55.4 48.3 55.4 47.1V28.1C55.4 26.3 53.9 24.8 52.1 24.8H50.3V9.2C50.3 6.4 48 4 45.1 4H15.8C13 4 10.6 6.3 10.6 9.2V24.9H8.90001C7.10001 24.9 5.60001 26.4 5.60001 28.2V40C5.60001 40.8 6.20001 41.4 7.00001 41.4C7.80001 41.4 8.40001 40.8 8.40001 40V28.1C8.40001 27.8 8.60001 27.6 8.90001 27.6H10.7V35.5C10.7 37.8 12.6 39.7 14.9 39.7C17.2 39.7 19.1 37.8 19.1 35.5V27.6H41.8V35.5C41.8 37.8 43.7 39.7 46 39.7C48.3 39.7 50.2 37.8 50.2 35.5V27.6H52C52.3 27.6 52.5 27.8 52.5 28.1V47.1C52.5 48.8 52.8 50.4 53.5 51.9L57.4 61.5C57.9 62.7 58.1 64 58.1 65.2V87.9C58.1 88.7 58.7 89.3 59.5 89.3C60.3 89.3 60.9 88.7 60.9 87.9V65.2C60.9 63.6 60.6 61.9 60 60.4ZM16.3 35.6C16.3 36.4 15.7 37 14.9 37C14.1 37 13.5 36.4 13.5 35.6V9.2C13.5 7.9 14.6 6.9 15.8 6.9H16.3V35.6ZM19.1 24.8V12.4H30.4C31.2 12.4 31.8 11.8 31.8 11C31.8 10.2 31.2 9.6 30.4 9.6H19.1V6.8H41.8V9.6H36.5C35.7 9.6 35.1 10.2 35.1 11C35.1 11.8 35.7 12.4 36.5 12.4H41.8V24.8H19.1ZM47.4 35.6C47.4 36.4 46.8 37 46 37C45.2 37 44.6 36.4 44.6 35.6V6.8H45.1C46.4 6.8 47.4 7.9 47.4 9.1V35.6Z" fill="#130246"/>
<path d="M42.7 79.0999C46.6 79.0999 49.7 75.8999 49.7 72.0999V57.0999C49.7 56.2999 49.1 55.7 48.3 55.7H12.7C11.9 55.7 11.3 56.2999 11.3 57.0999V72.0999C11.3 75.9999 14.5 79.0999 18.3 79.0999H42.7ZM14.1 72.0999V58.5H46.9V72.0999C46.9 74.3999 45 76.3 42.7 76.3H18.3C16 76.3 14.1 74.3999 14.1 72.0999Z" fill="#130246"/>
</g>
<defs>
<linearGradient id="paint0_linear" x1="116" y1="-8.76902e-06" x2="-2.67314" y2="20.9727" gradientUnits="userSpaceOnUse">
<stop stop-color="#EEF1FF"/>
<stop offset="1" stop-color="#FDF2FF"/>
</linearGradient>
<clipPath id="clip0">
<rect y="4" width="60.9" height="96" fill="white"/>
</clipPath>
</defs>
</svg>
