<svg width="119" height="104" viewBox="0 0 119 104" fill="none" xmlns="http://www.w3.org/2000/svg">
<circle cx="67" cy="52" r="52" fill="url(#paint0_linear)"/>
<g clip-path="url(#clip0)">
<path d="M23 21.3333H10.7333C9.87085 21.3333 9.20001 22.0041 9.20001 22.8666V28.9999C9.20001 33.2166 12.65 36.6666 16.8667 36.6666C21.0833 36.6666 24.5333 33.2166 24.5333 28.9999V22.8666C24.5333 22.0041 23.8625 21.3333 23 21.3333ZM21.4667 28.9999C21.4667 31.5874 19.4542 33.5999 16.8667 33.5999C14.2792 33.5999 12.2667 31.5874 12.2667 28.9999V24.3999H21.4667V28.9999Z" fill="#130246"/>
<path d="M70.0542 64.7458L57.7875 52.4792C57.2125 51.9042 56.2542 51.9042 55.5833 52.4792L39.8667 68.1958V7.53333C39.8667 6.67083 39.1958 6 38.3333 6H7.66667C6.80417 6 6.13333 6.67083 6.13333 7.53333V13.3792L0.0958333 30.0542C0 30.2458 0 30.5333 0 30.8208L13.8 96.7542C13.9917 97.425 14.5667 98 15.3333 98H38.3333C38.7167 98 39.1 97.8083 39.3875 97.5208L70.0542 66.8542C70.725 66.2792 70.725 65.3208 70.0542 64.7458ZM36.8 12.1333H30.6667V9.06667H36.8V12.1333ZM36.8 22.7708C32.9667 22.1 29.9 19.1292 29.2292 15.2H36.8V22.7708ZM18.4 12.1333V9.06667H27.6V12.1333H18.4ZM9.2 9.06667H15.3333V12.1333H9.2V9.06667ZM16.5792 94.9333L3.1625 30.6292L8.72083 15.2H26.1625C26.8333 20.7583 31.2417 25.1667 36.8 25.8375V94.9333H16.5792ZM39.8667 72.6042L52.9 59.5708L62.9625 69.6333L39.8667 92.7292V72.6042ZM65.1667 67.4292L55.1042 57.3667L56.7333 55.7375L66.7958 65.8L65.1667 67.4292Z" fill="#130246"/>
<path d="M30.6667 29H33.7333V32.0667H30.6667V29Z" fill="#130246"/>
<path d="M30.6667 35.1333H33.7333V38.2H30.6667V35.1333Z" fill="#130246"/>
</g>
<defs>
<linearGradient id="paint0_linear" x1="119" y1="-8.76902e-06" x2="0.326857" y2="20.9727" gradientUnits="userSpaceOnUse">
<stop stop-color="#EEF1FF"/>
<stop offset="1" stop-color="#FDF2FF"/>
</linearGradient>
<clipPath id="clip0">
<rect y="6" width="70.5333" height="92" fill="white"/>
</clipPath>
</defs>
</svg>
