<svg width="116" height="104" viewBox="0 0 116 104" fill="none" xmlns="http://www.w3.org/2000/svg">
<circle cx="64" cy="52" r="52" fill="url(#paint0_linear)"/>
<g clip-path="url(#clip0)">
<path d="M55.4 50.5L52.5 46.9C51.6 45.7 51.1 44.3 51.1 42.8V29.6C51.1 27.9 49.7 26.5 48 26.5H47.9V7.1C47.9 5.4 46.5 4 44.8 4H41.6C39.9 4 38.5 5.4 38.5 7.1V26.4H19V7.1C19 5.4 17.6 4 15.9 4H12.7C11 4 9.6 5.4 9.6 7.1V26.4H9.5C7.8 26.4 6.4 27.8 6.4 29.5V42.7C6.4 44.2 5.9 45.6 5 46.8L2.1 50.4C0.7 52.1 0 54.3 0 56.4V96.9C0 98.6 1.4 100 3.1 100H22.5C24.1 100 25.4 98.8 25.6 97.3L28.4 76.2C28.4 76 28.6 75.9 28.7 75.9C28.9 75.9 29 76 29 76.2L31.8 97.3C32 98.8 33.3 100 34.9 100H54.3C56 100 57.4 98.6 57.4 96.9V56.4C57.5 54.3 56.8 52.1 55.4 50.5ZM41.5 7.1C41.5 7 41.5 7 41.6 7H44.8C44.9 7 44.9 7 44.9 7.1V26.4H41.5V7.1ZM12.6 7.1C12.6 7 12.6 7 12.7 7H15.9C16 7 16 7.1 16 7.1V26.4H12.6V7.1ZM3 56.7H8V63.2C8 65.9 5.8 68.1 3.1 68.1H3V56.7ZM22.6 96.9C22.6 97 22.6 97 22.6 96.9L3.1 97C3 97 3 97 3 96.9V93.6H23.1L22.6 96.9ZM27.3 73.3C26.3 73.8 25.6 74.7 25.5 75.8L23.5 90.5H3V71.1H3.1C7.5 71.1 11 67.5 11 63.2V56.7H27.2L27.3 73.3ZM3.6 53.7C3.8 53.2 4.1 52.8 4.4 52.3L7.3 48.7C8.6 47 9.4 44.9 9.4 42.8V29.6C9.4 29.5 9.4 29.5 9.5 29.5H48C48.1 29.5 48.1 29.5 48.1 29.6V42.8C48.1 45 48.8 47.1 50.2 48.7L53.1 52.3C53.4 52.7 53.7 53.2 53.9 53.7H3.6ZM54.5 96.9C54.5 97 54.5 97 54.4 97H35C35 97 34.9 97 34.9 96.9L34.5 93.6H54.6L54.5 96.9ZM54.5 90.6H34L32 75.9C31.9 74.8 31.2 73.9 30.2 73.4V56.7H46.4V63.2C46.4 67.6 50 71.1 54.3 71.1H54.4L54.5 90.6ZM54.5 68.1H54.4C51.7 68.1 49.5 65.9 49.5 63.2V56.7H54.5V68.1Z" fill="#130246"/>
<path d="M14.3 32.8999C13.5 32.8999 12.8 33.5999 12.8 34.3999C12.8 35.1999 13.5 35.8999 14.3 35.8999C15.1 35.8999 15.8 35.1999 15.8 34.3999C15.8 33.4999 15.2 32.8999 14.3 32.8999Z" fill="#130246"/>
<path d="M43.2 32.8999C42.4 32.8999 41.7 33.5999 41.7 34.3999C41.7 35.1999 42.4 35.8999 43.2 35.8999C44 35.8999 44.7 35.1999 44.7 34.3999C44.7 33.4999 44 32.8999 43.2 32.8999Z" fill="#130246"/>
<path d="M36.8 32.8999H20.8C20 32.8999 19.3 33.5999 19.3 34.3999V42.6999C19.3 44.1999 19.9 45.4999 21 46.2999C23 47.8999 25.9 48.7999 28.8 48.7999C31.7 48.7999 34.6 47.8999 36.6 46.2999C37.7 45.4999 38.3 44.0999 38.3 42.6999V34.3999C38.3 33.4999 37.6 32.8999 36.8 32.8999ZM35.3 42.5999C35.3 43.0999 35.1 43.5999 34.8 43.7999C33.3 44.9999 31.1 45.5999 28.8 45.5999C26.5 45.5999 24.3 44.8999 22.8 43.7999C22.5 43.4999 22.3 43.0999 22.3 42.5999V35.7999H35.3V42.5999Z" fill="#130246"/>
</g>
<defs>
<linearGradient id="paint0_linear" x1="116" y1="-8.76902e-06" x2="-2.67314" y2="20.9727" gradientUnits="userSpaceOnUse">
<stop stop-color="#EEF1FF"/>
<stop offset="1" stop-color="#FDF2FF"/>
</linearGradient>
<clipPath id="clip0">
<rect y="4" width="57.5" height="96" fill="white"/>
</clipPath>
</defs>
</svg>
