<svg width="126" height="104" viewBox="0 0 126 104" fill="none" xmlns="http://www.w3.org/2000/svg">
<circle cx="74" cy="52" r="52" fill="url(#paint0_linear)"/>
<path d="M85.0673 59.3112C83.9488 39.3819 80.39 24.8417 74.2892 16.0972L74.1876 15.9955L74.0859 15.8938L73.9842 15.7922C73.8825 15.6905 73.7808 15.6905 73.6792 15.6905L70.222 14.572C70.1204 12.4367 69.7136 10.6065 69.1036 8.97961C67.8834 6.03089 65.3414 3.99729 62.291 3.38721C59.1389 2.77713 55.9868 3.79393 53.7499 6.03089L42.7684 16.9106L31.9904 5.82753C29.7534 3.48889 26.6013 2.57377 23.4492 3.18385C20.3988 3.79393 17.7552 5.92921 16.6367 8.77625C16.0266 10.4031 15.6199 12.2334 15.5182 14.3686L12.0611 15.4871C11.9594 15.4871 11.8577 15.5888 11.7561 15.5888C11.7561 15.5888 11.6544 15.5888 11.6544 15.6905L11.5527 15.7922L11.451 15.8938C5.75693 24.0282 2.19813 36.7382 0.774611 54.0238C0.672931 54.8373 1.28301 55.549 2.09645 55.549C2.90989 55.6507 3.62165 55.0406 3.62165 54.2272C4.84181 39.1786 7.68885 27.7904 12.0611 20.1644L12.9762 22.6047L16.84 33.1794V60.633L10.3325 91.4421H3.62165C3.31661 87.5782 2.60485 76.1901 3.11325 62.9717C3.11325 62.1582 2.50317 61.5482 1.68973 61.4465C0.876291 61.4465 0.266211 62.0566 0.164531 62.87C-0.343869 76.8002 0.469571 88.6967 0.672931 92.0522C0.774611 93.2723 1.79141 94.2891 3.01157 94.2891H10.6376C11.7561 94.2891 12.7729 93.4757 12.9762 92.3572L16.7384 74.5632V91.8488C16.7384 93.1706 17.8568 94.2891 19.1787 94.2891H21.619V98.5597C21.619 99.8815 22.7375 101 24.0593 101H61.3759C62.6977 101 63.8162 99.8815 63.8162 98.5597V94.1874H66.2565C67.5784 94.1874 68.6968 93.069 68.6968 91.7471V74.4615L72.459 92.2555C72.6624 93.374 73.6792 94.1874 74.7976 94.1874H82.4236C83.6438 94.1874 84.7623 93.1706 84.7623 91.9505C85.0673 88.1883 85.9824 74.5632 85.0673 59.3112ZM55.5801 7.86113C56.8003 6.53929 58.5288 5.92921 60.2574 5.92921C60.6641 5.92921 61.0708 5.92921 61.5792 6.03089C63.7145 6.43761 65.4431 7.86113 66.2565 9.89473C66.6632 10.9115 66.9683 12.1317 67.07 13.3518L60.9692 11.3182C60.4608 11.1149 59.9524 11.3182 59.5456 11.6233C59.444 11.725 54.1566 16.7073 46.2256 17.5207L55.5801 7.86113ZM19.2804 9.89473C20.0938 7.86113 21.8224 6.43761 23.9576 6.03089C26.0929 5.62417 28.3299 6.33593 29.9568 7.86113L39.3113 17.5207C31.3803 16.7073 26.0929 11.725 25.9912 11.6233C25.7879 11.4199 25.4829 11.2166 25.1778 11.2166C25.1778 11.2166 25.1778 11.2166 25.1778 11.1149L24.9744 11.2166C24.8728 11.2166 24.6694 11.2166 24.5677 11.3182L18.4669 13.3518C18.5686 12.03 18.8736 10.9115 19.2804 9.89473ZM60.9692 98.0513H24.5677V94.2891H60.8675L60.9692 98.0513ZM65.8498 32.366C65.7481 32.5694 65.7481 32.671 65.7481 32.8744V91.3404H19.7888V32.8744C19.7888 32.671 19.7888 32.5694 19.6871 32.366L14.298 17.8258L24.7711 14.3686C26.0929 15.4871 29.3467 17.8258 33.8206 19.2493V32.5694C33.8206 33.3828 34.4307 33.9929 35.2441 33.9929C36.0576 33.9929 36.6676 33.3828 36.6676 32.5694V20.0627C36.6676 20.9778 48.8692 20.5711 48.8692 20.0627V32.5694C48.8692 33.3828 49.4793 33.9929 50.2928 33.9929C51.1062 33.9929 51.7163 33.3828 51.7163 32.5694V19.2493C56.1902 17.8258 59.444 15.4871 60.7658 14.3686L71.2388 17.8258L65.8498 32.366ZM81.9152 91.3404H75.1027L68.5952 60.5314V33.0778L73.3741 20.0627C78.1531 28.5022 81.2035 42.0256 82.2203 59.4129C83.0337 74.0548 82.2203 87.0698 81.9152 91.3404Z" fill="#130246"/>
<path d="M58.2238 74.4616C53.1398 71.5128 52.123 67.4456 51.818 65.8188C51.6146 64.7003 50.5978 63.7852 49.4793 63.7852H36.0576C34.8374 63.7852 33.8206 64.7003 33.7189 65.8188C33.5156 67.4456 32.3971 71.5128 27.3131 74.4616C26.6013 74.8683 26.0929 75.6817 26.0929 76.4952V83.4094C26.0929 84.7312 27.2114 85.8497 28.5332 85.8497H34.024C34.8374 85.8497 35.4475 85.2396 35.4475 84.4262C35.4475 83.6128 34.8374 83.0027 34.024 83.0027H29.0416V76.8002C34.5324 73.4448 36.0576 68.8692 36.4643 66.6322H48.9709C49.3776 68.8692 50.9029 73.4448 56.3936 76.8002V83.0027H42.7684C41.955 83.0027 41.3449 83.6128 41.3449 84.4262C41.3449 85.2396 41.955 85.8497 42.7684 85.8497H57.0037C58.3255 85.8497 59.444 84.7312 59.444 83.4094V76.4952C59.3423 75.6817 58.9356 74.8683 58.2238 74.4616Z" fill="#130246"/>
<defs>
<linearGradient id="paint0_linear" x1="126" y1="-8.76902e-06" x2="7.32686" y2="20.9727" gradientUnits="userSpaceOnUse">
<stop stop-color="#EEF1FF"/>
<stop offset="1" stop-color="#FDF2FF"/>
</linearGradient>
</defs>
</svg>
