<svg width="11" height="16" viewBox="0 0 11 16" fill="none" xmlns="http://www.w3.org/2000/svg">
<path d="M5.45224 0C2.4431 0 0 2.50833 0 5.59782C0 9.79712 5.45224 15.9948 5.45224 15.9948C5.45224 15.9948 10.9045 9.79712 10.9045 5.59782C10.9081 2.50833 8.46503 0 5.45224 0ZM5.45224 7.59999C4.37859 7.59999 3.50579 6.70389 3.50579 5.60157C3.50579 4.49925 4.37859 3.5994 5.45224 3.5994C6.52589 3.5994 7.39869 4.4955 7.39869 5.59782C7.39869 6.70014 6.52954 7.59999 5.45224 7.59999Z" fill="#CB02A8"/>
</svg>
